Wood Bison Camera Trap Tools • bisonpictools
…
analysis <- bpt_analyse(
  event_data = event_data,
  location_data = location_data,
  census_data = census_data,
  proportion_calf_data = proportion_calf_data,
  nthin = 1L,
  analysis_mode = "quick"
)

View model estimates

Use the bpt_coefficient_table() function to view the model estimates.

bpt_coefficient_table(analysis)
#> # A tibble: 57 × 5
#>    term                           estimate    lower  upper svalue
#>    <term>                            <dbl>    <dbl>  <dbl>  <dbl>
#>  1 bEtaSummerFall                    0.232  0.00955  0.753  4.39 
#>  2 bEtaWin                           0.101  0.00114  0.484  4.39 
#>  3 bFecundityReproductiveFA          1.94   1.63     2.69   4.39 
#>  4 bInitialMortalityCalfAnnual[1]   -3.75  -5.78    -2.12   4.39 
#>  5 bInitialMortalityCalfAnnual[2]   -4.56  -7.45    -2.35   4.39 
#>  6 bInitialMortalityCalfAnnual[3]   -2.87  -7.46    -1.60   4.39 
#>  7 bInitialMortalityCalfAnnual[4]   -1.09  -6.11     3.64   0.485
#>  8 bKmWeekSummerFall                 2.22   0.266    4.42   4.39 
#>  9 bKmWeekWin                        1.93   1.21     2.63   4.39 
#> 10 bMAProportion[1]                  0.440  0.258    0.582  4.39 
#> # ℹ 47 more rows
…
