Getting Started with bisonpictools • bisonpictools
…
#> # A tibble: 1 × 8
#>       n     K nchains niters nthin   ess  rhat converged
#>   <int> <int>   <int>  <int> <int> <int> <dbl> <lgl>    
#> 1    11    57       2     10     1     7  1.97 FALSE

(4) Coefficient table

Use the bpt_coefficient_table() function to print out
the estimated parameters from the model run.

coef <- bpt_coefficient_table(analysis)
print(coef)
#> # A tibble: 57 × 5
#>    term                           estimate    lower  upper svalue
#>    <term>                            <dbl>    <dbl>  <dbl>  <dbl>
#>  1 bEtaSummerFall                    0.232  0.00955  0.753  4.39 
#>  2 bEtaWin                           0.101  0.00114  0.484  4.39 
#>  3 bFecundityReproductiveFA          1.94   1.63     2.69   4.39 
#>  4 bInitialMortalityCalfAnnual[1]   -3.75  -5.78    -2.12   4.39 
#>  5 bInitialMortalityCalfAnnual[2]   -4.56  -7.45    -2.35   4.39 
#>  6 bInitialMortalityCalfAnnual[3]   -2.87  -7.46    -1.60   4.39 
#>  7 bInitialMortalityCalfAnnual[4]   -1.09  -6.11     3.64   0.485
#>  8 bKmWeekSummerFall                 2.22   0.266    4.42   4.39 
#>  9 bKmWeekWin                        1.93   1.21     2.63   4.39 
#> 10 bMAProportion[1]                  0.440  0.258    0.582  4.39 
#> # ℹ 47 more rows
…
# Predict total abundance
bpt_predict_abundance_total(analysis)
#> # A tibble: 4 × 4
#>   annual    estimate lower upper
#>   <fct>        <dbl> <dbl> <dbl>
#> 1 2018-2019     211.  182.  244.
#> 2 2019-2020     225.  205.  252.
#> 3 2020-2021     254.  230.  280.
#> 4 2021-2022     295.  258.  311.

# Predicts abundance by class:
bpt_predict_abundance_class(analysis)
#> # A tibble: 32 × 5
#>    annual    class estimate lower upper
#>    <fct>     <chr>    <dbl> <dbl> <dbl>
#>  1 2018-2019 F0        41.3 27.8   63.3
#>  2 2019-2020 F0        32.6 26.2   36.9
#>  3 2020-2021 F0        40.9 35.3   43.0
#>  4 2021-2022 F0        44.4 35.0   47.6
#>  5 2018-2019 F1        17.0  6.53  43.2
#>  6 2019-2020 F1        20.1 12.4   31.6
#>  7 2020-2021 F1        17.7  8.95  23.2
#>  8 2021-2022 F1        25.0 20.2   30.2
#>  9 2018-2019 FA        64.0 51.8   82.0
#> 10 2019-2020 FA        80.6 65.1   91.5
#> # ℹ 22 more rows

# Predicts survival rates by class:
bpt_predict_survival(analysis)
#> # A tibble: 24 × 5
#>    annual    class estimate  lower upper
#>    <fct>     <fct>    <dbl>  <dbl> <dbl>
#>  1 2018-2019 F0       0.460 0.366  0.648
#>  2 2019-2020 F0       0.510 0.312  0.682
#>  3 2020-2021 F0       0.587 0.469  0.701
#>  4 2021-2022 F0       0.324 0.0146 0.635
#>  5 2018-2019 M0       0.445 0.196  0.679
#>  6 2019-2020 M0       0.570 0.414  0.760
#>  7 2020-2021 M0       0.507 0.406  0.643
#>  8 2021-2022 M0       0.364 0.0174 0.677
#>  9 2018-2019 F1       0.873 0.679  0.932
#> 10 2019-2020 F1       0.850 0.726  0.919
#> # ℹ 14 more rows

# Predicts fecundity rate and proportion of reproductive cows:
bpt_predict_fecundity(analysis)
#> # A tibble: 2 × 4
#>   rate                            estimate lower upper
#>   <chr>                              <dbl> <dbl> <dbl>
#> 1 Fecundity                          0.875 0.836 0.936
#> 2 Proportion of Reproductive Cows    0.965 0.888 0.996

# Predicts population ratios:
bpt_predict_ratios(analysis)
#> # A tibble: 28 × 5
#>    annual    ratio   estimate lower upper
#>    <fct>     <fct>      <dbl> <dbl> <dbl>
#>  1 2018-2019 M0:F0      0.802 0.384 1.35 
#>  2 2019-2020 M0:F0      1.13  0.895 1.63 
#>  3 2020-2021 M0:F0      0.847 0.647 1.26 
#>  4 2021-2022 M0:F0      1.12  0.668 2.40 
#>  5 2018-2019 M1:F1      1.14  0.439 3.28 
#>  6 2019-2020 M1:F1      0.771 0.393 1.28 
#>  7 2020-2021 M1:F1      1.08  0.938 1.72 
#>  8 2021-2022 M1:F1      0.935 0.523 1.45 
#>  9 2018-2019 Calf:FA    0.590 0.367 0.758
#> 10 2019-2020 Calf:FA    0.464 0.297 0.591
#> # ℹ 18 more rows
…
